Derive AVAL variable for ADIS ADaM domain — derive_var_aval_adis • admiralvaccine
…
derive_var_aval_adis(
  dataset = input,
  lower_rule = ISLLOQ / 2,
  middle_rule = ISSTRESN,
  upper_rule = ISULOQ,
  round = 2
)
#> # A tibble: 24 × 9
#>    USUBJID  AVISITN PARAMCD  PARAM          ISORRES ISSTRESN ISLLOQ ISULOQ  AVAL
#>    <chr>      <dbl> <chr>    <chr>          <chr>      <dbl>  <dbl>  <dbl> <dbl>
#>  1 ABC-1001      10 J0033VN  J0033VN Antib… NA          NA        2    100  NA  
#>  2 ABC-1001      10 I0019NT  I0019NT Antib… 3            3        4    200   2  
#>  3 ABC-1001      10 M0019LN  M0019LN Antib… >150        NA        8    150 150  
#>  4 ABC-1001      10 R0003MA  R0003MA Antib… 140.5      140.       4    120 120  
#>  5 ABC-1001      30 J0033VN  J0033VN Antib… 2            2        2    100   2  
#>  6 ABC-1001      30 I0019NT  I0019NT Antib… NA          NA        4    200  NA  
#>  7 ABC-1001      30 M0019LN  M0019LN Antib… NA          NA        8    150  NA  
#>  8 ABC-1001      30 R0003MA  R0003MA Antib… 98.2        98.2      4    120  98.2
#>  9 ABC-1001      10 J0033VNL LOG10 (J0033V… NA          NA        2    100  NA  
#> 10 ABC-1001      10 I0019NTL LOG10 (I0019N… 3            3        4    200   2  
#> # ℹ 14 more rows
…
