Add New Variable(s) to the Input dataset Based on Variables from Another dataset — derive_vars_merged_vaccine • admiralvaccine
…
derive_vars_merged_vaccine(
  dataset = face_vaccine,
  dataset_ex = ex_vaccine,
  by_vars_sys = exprs(USUBJID, FATPTREF = EXLNKGRP),
  by_vars_adms = exprs(USUBJID, FATPTREF = EXLNKGRP, FALOC = EXLOC, FALAT = EXLAT),
  ex_vars = exprs(EXTRT, EXDOSE, EXDOSU, EXSTDTC, EXENDTC)
)
#> # A tibble: 307 × 35
#>    STUDYID DOMAIN USUBJID  FASEQ FALNKGRP    FALAT FALNKID FALOC FATESTCD FATEST
#>    <chr>   <chr>  <chr>    <int> <chr>       <chr> <chr>   <chr> <chr>    <chr> 
#>  1 ABC     FACE   ABC-1001     8 VACCINATIO… LEFT  VACCIN… DELT… OCCUR    Occur…
#>  2 ABC     FACE   ABC-1001     9 VACCINATIO… LEFT  VACCIN… DELT… OCCUR    Occur…
#>  3 ABC     FACE   ABC-1001    10 VACCINATIO… LEFT  VACCIN… DELT… SEV      Sever…
#>  4 ABC     FACE   ABC-1001    11 VACCINATIO… LEFT  VACCIN… DELT… OCCUR    Occur…
#>  5 ABC     FACE   ABC-1001    12 VACCINATIO… LEFT  VACCIN… DELT… SEV      Sever…
#>  6 ABC     FACE   ABC-1001    13 VACCINATIO… LEFT  VACCIN… DELT… OCCUR    Occur…
#>  7 ABC     FACE   ABC-1001    14 VACCINATIO… LEFT  VACCIN… DELT… SEV      Sever…
#>  8 ABC     FACE   ABC-1001    15 VACCINATIO… LEFT  VACCIN… DELT… OCCUR    Occur…
#>  9 ABC     FACE   ABC-1001    16 VACCINATIO… LEFT  VACCIN… DELT… SEV      Sever…
#> 10 ABC     FACE   ABC-1001    17 VACCINATIO… LEFT  VACCIN… DELT… OCCUR    Occur…
#> # ℹ 297 more rows
#> # ℹ 25 more variables: FAOBJ <chr>, FACAT <chr>, FASCAT <chr>, FAEVAL <chr>,
#> #   FAORRES <chr>, FAORRESU <chr>, EPOCH <chr>, FADTC <chr>, FADY <dbl>,
#> #   FATPT <chr>, FATPTNUM <dbl>, FATPTREF <chr>, FARFTDTC <chr>,
#> #   FAEVLINT <chr>, FAEVINTX <chr>, FASTAT <chr>, FAREASND <chr>,
#> #   FASTRESC <chr>, FASTRESN <dbl>, FASTRESU <chr>, EXTRT <chr>, EXDOSE <dbl>,
#> #   EXDOSU <chr>, EXSTDTC <chr>, EXENDTC <chr>
…
