Creating Severity Records From Diameter — derive_diam_to_sev_records • admiralvaccine
…
derive_diam_to_sev_records(
  dataset = input,
  faobj_values = c("REDNESS", "SWELLING"),
  diam_code = "DIAMETER",
  testcd_sev = "SEV",
  test_sev = "Severity"
)
#> # A tibble: 40 × 8
#>    USUBJID FAOBJ    AVAL AVALC    ATPTREF       FATEST   FATESTCD FASEQ
#>    <chr>   <chr>   <dbl> <chr>    <chr>         <chr>    <chr>    <int>
#>  1 XYZ1001 REDNESS     2 MODERATE VACCINATION 1 Severity SEV         NA
#>  2 XYZ1001 REDNESS     1 MILD     VACCINATION 1 Severity SEV         NA
#>  3 XYZ1001 REDNESS     0 NONE     VACCINATION 1 Severity SEV         NA
#>  4 XYZ1001 REDNESS     0 NONE     VACCINATION 1 Severity SEV         NA
#>  5 XYZ1001 REDNESS     0 NONE     VACCINATION 1 Severity SEV         NA
#>  6 XYZ1002 REDNESS     3 SEVERE   VACCINATION 2 Severity SEV         NA
#>  7 XYZ1002 REDNESS     2 MODERATE VACCINATION 2 Severity SEV         NA
#>  8 XYZ1002 REDNESS     2 MODERATE VACCINATION 2 Severity SEV         NA
#>  9 XYZ1002 REDNESS     1 MILD     VACCINATION 2 Severity SEV         NA
#> 10 XYZ1002 REDNESS     0 NONE     VACCINATION 2 Severity SEV         NA
#> # ℹ 30 more rows
…
