Derive Analysis Criterion Evaluation Variables — derive_vars_crit • admiralvaccine
…
derive_vars_crit(
  dataset = input,
  prefix = "CRIT1",
  crit_label = "Titer >= ISLLOQ",
  condition = !is.na(AVAL) & !is.na(ISLLOQ),
  criterion = AVAL >= ISLLOQ
)
#> Warning: `derive_vars_crit()` was deprecated in admiralvaccine 0.4.0.
#> ℹ Please use `admiral::derive_vars_crit_flag()` instead.
#> ✖ This message will turn into a error at the beginning of 2026.
#> ℹ See admiral's deprecation guidance:
#>   https://pharmaverse.github.io/admiraldev/dev/articles/programming_strategy.html#deprecation
#> # A tibble: 24 × 9
#>    USUBJID       AVISITN ISCAT      PARAMCD  AVAL ISLLOQ CRIT1FL CRIT1FN CRIT1  
#>    <chr>           <dbl> <chr>      <chr>   <dbl>  <dbl> <chr>     <dbl> <chr>  
#>  1 999999-000001      10 IMMUNOLOGY J0033VN     2      4 N             0 Titer …
#>  2 999999-000001      10 IMMUNOLOGY I0019NT     3      6 N             0 Titer …
#>  3 999999-000001      10 IMMUNOLOGY M0019LN     4      4 Y             1 Titer …
#>  4 999999-000001      10 IMMUNOLOGY R0003MA     3      6 N             0 Titer …
#>  5 999999-000001      30 IMMUNOLOGY J0033VN    60      4 Y             1 Titer …
#>  6 999999-000001      30 IMMUNOLOGY I0019NT   567      6 Y             1 Titer …
#>  7 999999-000001      30 IMMUNOLOGY M0019LN   659      4 Y             1 Titer …
#>  8 999999-000001      30 IMMUNOLOGY R0003MA   250      6 Y             1 Titer …
#>  9 999999-000002      10 IMMUNOLOGY J0033VN     2      4 N             0 Titer …
#> 10 999999-000002      10 IMMUNOLOGY I0019NT     7      6 Y             1 Titer …
#> # ℹ 14 more rows
…
